…
```r
# Doing regression for all
sel_param <- c("CD", "HG", "PB", "HCB", "DDEPP", "CB_S7", "DDEPP", "BDE6S")

timeseries <- df_median %>%
  filter(Parameter %in% sel_param) %>%
  count(Posisjon, Parameter) %>%
  mutate(TISSUE_NAME = get_tissue(Parameter))

timeseries
```

```
## # A tibble: 21 x 4
##    Posisjon      Parameter     n TISSUE_NAME
##    <chr>         <chr>     <int> <chr>      
##  1 71,60N 21,30E BDE6S        10 Lever      
##  2 71,60N 21,30E CB_S7        10 Lever      
##  3 71,60N 21,30E CD           10 Lever      
##  4 71,60N 21,30E DDEPP         7 Lever      
##  5 71,60N 21,30E HCB           7 Lever      
##  6 71,60N 21,30E HG           15 Muskel     
##  7 71,60N 21,30E PB           10 Lever      
##  8 72,80N 32,92E BDE6S        13 Lever      
##  9 72,80N 32,92E CB_S7        13 Lever      
## 10 72,80N 32,92E CD           13 Lever      
## # ... with 11 more rows
```
…
